<?xml version="1.0" encoding="UTF-8"?>
<svg viewBox="0 0 191 19" version="1.1" xmlns="http://www.w3.org/2000/svg" xmlns:xlink="http://www.w3.org/1999/xlink">
    <!-- Generator: Sketch 52.6 (67491) - http://www.bohemiancoding.com/sketch -->
    <title>Group 25</title>
    <desc>Created with Sketch.</desc>
    <g id="Page-1" stroke="none" stroke-width="1" fill="none" fill-rule="evenodd">
        <g id="Desktop-HD" transform="translate(-130.000000, -252.000000)" fill="#6262CC">
            <g id="Group-2" transform="translate(130.000000, 252.000000)">
                <g id="Group-25">
                    <path d="M1.22,16.3245946 C1.61720028,16.7134931 2.06272847,17.0467418 2.545,17.3156757 C3.07771356,17.6077984 3.64608957,17.8254047 4.235,17.9627027 C4.92711477,18.1242061 5.63528801,18.2017632 6.345,18.1937838 C7.26135383,18.2046683 8.17173317,18.0410026 9.03,17.7110811 C9.79980582,17.4142333 10.5000313,16.954047 11.085,16.3605405 C11.6777773,15.7640771 12.1278873,15.0346316 12.4,14.2294595 C12.6845068,13.3066274 12.8196355,12.3421006 12.8,11.3743243 L12.8,1.31459459 C12.7972688,1.1350955 12.6547968,0.991059166 12.48,0.991081081 L5.14,0.991081081 C4.96522457,0.993886096 4.82497866,1.14020872 4.825,1.31972973 L4.825,5.42783784 C4.825,5.60650942 4.9660303,5.75135135 5.14,5.75135135 L7.14,5.75135135 C7.31479677,5.75132944 7.4572688,5.89536577 7.46,6.07486486 L7.46,11.477027 C7.48623212,11.987826 7.33568576,12.4916896 7.035,12.8994595 C6.76608335,13.2370594 6.35948447,13.4268722 5.935,13.412973 C5.51236314,13.4235509 5.09853294,13.2879078 4.76,13.0278378 C4.47345037,12.7943638 4.21793995,12.5233156 4,12.2216216 C3.8881017,12.081353 3.68672752,12.0606713 3.55,12.1754054 L0.42,14.8918919 C0.29327864,15.00019 0.269296143,15.1905179 0.365,15.3283784 C0.618327204,15.6877652 0.904638549,16.0213652 1.22,16.3245946 Z" id="Path"></path>
                    <path d="M27.39,17.747027 C28.340726,17.4797266 29.2218875,16.999177 29.97,16.34 C30.7042111,15.657713 31.2697905,14.8057772 31.62,13.8545946 C32.0423884,12.6750892 32.2426091,11.4238708 32.21,10.1675676 L32.21,1.31459459 C32.2072688,1.1350955 32.0647968,0.991059166 31.89,0.991081081 L26.94,0.991081081 C26.7660303,0.991081081 26.625,1.13592301 26.625,1.31459459 L26.625,10.337027 C26.625,11.3640541 26.39,12.1035135 25.92,12.54 C25.417664,12.9983366 24.7612957,13.2377739 24.09,13.2075676 C23.4160262,13.2307835 22.7615037,12.9733799 22.275,12.4937838 C21.775,12.0213514 21.56,11.2613514 21.56,10.2189189 L21.56,1.31459459 C21.5572688,1.1350955 21.4147968,0.991059166 21.24,0.991081081 L16.29,0.991081081 C16.1160303,0.991081081 15.975,1.13592301 15.975,1.31459459 L15.975,10.2702703 C15.9452426,11.4949166 16.1403085,12.7143649 16.55,13.8648649 C16.895381,14.8061083 17.4541408,15.6492974 18.18,16.3245946 C18.914764,16.9838239 19.7845993,17.4647205 20.725,17.7316216 C21.8054587,18.0413815 22.9233104,18.1918055 24.045,18.1783784 C25.1741396,18.1956751 26.3000743,18.0504813 27.39,17.747027 Z" id="Path"></path>
                    <path d="M49.06,14.8456757 C49.4043733,14.1002038 49.5755329,13.2828008 49.56,12.4578378 L49.56,12.4116216 C49.5834463,11.6548815 49.4109056,10.9053085 49.06,10.2394595 C48.7036361,9.62091827 48.2145588,9.09403468 47.63,8.69891892 C46.9400967,8.25222861 46.1928974,7.90655566 45.41,7.67189189 C44.4709118,7.38137393 43.5159099,7.14817369 42.55,6.97351351 C42.1860749,6.912857 41.825562,6.83229192 41.47,6.73216216 C41.2387793,6.67236263 41.0142388,6.58803542 40.8,6.48054054 C40.666224,6.41816905 40.5494551,6.32293463 40.46,6.20324324 C40.399392,6.1105165 40.366382,6.00167276 40.365,5.89 L40.365,5.84378378 C40.3647353,5.63015333 40.4778008,5.43333751 40.66,5.33027027 C40.9389837,5.18287177 41.2520742,5.11714005 41.565,5.14027027 C42.395827,5.15165668 43.2208164,5.2848017 44.015,5.53567568 C44.8045846,5.77815875 45.5532883,6.14357793 46.235,6.61918919 C46.3762004,6.71959553 46.5696906,6.68533353 46.67,6.54216216 L48.985,3.25567568 C49.0849229,3.1087388 49.0540212,2.90698296 48.915,2.79864865 C48.005641,2.11691737 46.9916482,1.59621835 45.915,1.25810811 C44.5545522,0.850548088 43.1419117,0.656643737 41.725,0.682972973 C40.7092257,0.665359227 39.6970116,0.810899201 38.725,1.11432432 C37.9273898,1.36359635 37.1862459,1.77386262 36.545,2.32108108 C35.9903709,2.81145583 35.5481531,3.42169137 35.25,4.10810811 C34.9429866,4.81201225 34.7877747,5.57576376 34.795,6.34702703 L34.795,6.39324324 C34.7662571,7.18440568 34.9607234,7.96724494 35.355,8.64756757 C35.7374947,9.25938378 36.2504212,9.77388144 36.855,10.1521622 C37.5439758,10.5814432 38.2854744,10.9147245 39.06,11.1432432 C39.8933333,11.4 40.7733333,11.6242342 41.7,11.8159459 C42.3152041,11.9173782 42.9173309,12.0896346 43.495,12.3294595 C43.8283333,12.4903604 43.995,12.6906306 43.995,12.9302703 L43.995,12.9764865 C43.9862517,13.1972696 43.8592233,13.3949388 43.665,13.49 C43.3269714,13.6419291 42.9580337,13.7071367 42.59,13.68 C41.5952008,13.6754667 40.6063982,13.5214942 39.655,13.222973 C38.7293085,12.9307308 37.8586155,12.4792773 37.08,11.8878378 C36.9461037,11.78507 36.7573637,11.8076097 36.65,11.9391892 L34.11,15.0459459 C33.9998537,15.1858881 34.0175466,15.3903132 34.15,15.5081081 C35.186521,16.3719997 36.3746045,17.0239318 37.65,17.4286486 C39.1649744,17.9118076 40.7437179,18.150862 42.33,18.1372973 C43.3430024,18.1487881 44.3526493,18.0157148 45.33,17.7418919 C46.1553576,17.5130133 46.9319507,17.1281538 47.62,16.607027 C48.2234909,16.1392765 48.715838,15.5370568 49.06,14.8456757 Z" id="Path"></path>
                    <path d="M65.915,0.991081081 L51.39,0.991081081 C51.2160303,0.991081081 51.075,1.13592301 51.075,1.31459459 L51.075,5.4227027 C51.0749787,5.60222371 51.2152246,5.74854634 51.39,5.75135135 L55.59,5.75135135 C55.7647968,5.75132944 55.9072688,5.89536577 55.91,6.07486486 L55.91,17.5210811 C55.91,17.6997527 56.0510303,17.8445946 56.225,17.8445946 L61.08,17.8445946 C61.2547968,17.8446165 61.3972688,17.7005802 61.4,17.5210811 L61.4,6.08513514 C61.4,5.90646356 61.5410303,5.76162162 61.715,5.76162162 L65.915,5.76162162 C66.0897754,5.75881661 66.2300213,5.61249398 66.23,5.43297297 L66.23,1.32486486 C66.2327081,1.23729845 66.2007201,1.15234811 66.1413501,1.08943779 C66.0819801,1.02652747 66.000305,0.991036922 65.915,0.991081081 Z" id="Path"></path>
                    <path d="M120.08,6.82972973 L116.58,6.82972973 C116.44222,6.83125741 116.319995,6.73920294 116.28,6.60378378 C115.086033,2.85477703 111.680651,0.318973694 107.84,0.318973694 C103.999349,0.318973694 100.593967,2.85477703 99.4,6.60378378 C99.3605371,6.73737975 99.2409326,6.82898698 99.105,6.82972973 L95.5,6.82972973 C95.3260303,6.82972973 95.185,6.97457166 95.185,7.15324324 L95.185,11.7132432 C95.185,11.8919148 95.3260303,12.0367568 95.5,12.0367568 L99.09,12.0367568 C99.2291687,12.0358903 99.3518427,12.1303824 99.39,12.2678378 C100.583967,16.0168446 103.989349,18.5526479 107.83,18.5526479 C111.670651,18.5526479 115.076033,16.0168446 116.27,12.2678378 C116.308157,12.1303824 116.430831,12.0358903 116.57,12.0367568 L120.07,12.0367568 C120.244797,12.0367787 120.387269,11.8927423 120.39,11.7132432 L120.39,7.15324324 C120.387411,6.97766763 120.250892,6.83519697 120.08,6.82972973 Z M107.8,13.3513514 C105.698557,13.3513514 103.995,11.6017528 103.995,9.44351351 C103.995,7.28527427 105.698557,5.53567568 107.8,5.53567568 C109.901443,5.53567568 111.605,7.28527427 111.605,9.44351351 C111.605,11.6017528 109.901443,13.3513514 107.8,13.3513514 Z" id="Shape" fill-rule="nonzero"></path>
                    <path d="M93.16,13.4643243 L89.16,11.1586486 C89.010614,11.0729211 88.8219119,11.1253616 88.735,11.2767568 C88.4475365,11.7517252 88.0880015,12.1764519 87.67,12.5348649 C87.1313209,12.950541 86.4679692,13.1594669 85.795,13.1254054 C84.9393949,13.1378165 84.1245829,12.7505683 83.58,12.0727027 C83.2949452,11.7256011 83.0791799,11.324284 82.945,10.8916216 C82.7904314,10.4060914 82.7144232,9.89781767 82.72,9.38702703 L82.72,9.34081081 C82.7178375,8.85714583 82.7938711,8.37646739 82.945,7.91837838 C83.0824969,7.49033163 83.2923737,7.09052267 83.565,6.7372973 C83.8271501,6.40375523 84.1563123,6.13225755 84.53,5.94135135 C84.9241603,5.74578405 85.3572982,5.64732048 85.795,5.65378378 C86.4466366,5.62340047 87.0888072,5.82270793 87.615,6.21864865 C88.0154471,6.55271633 88.354166,6.95798893 88.615,7.41513514 C88.7040245,7.57022748 88.8979775,7.6228882 89.05,7.53324324 L93.05,5.14027027 C93.1232559,5.09831912 93.1768338,5.0276721 93.1985037,4.94445546 C93.2201737,4.86123882 93.208086,4.77255544 93.165,4.69864865 C92.8561629,4.16650866 92.4960187,3.66760377 92.09,3.20945946 C91.6112452,2.66854562 91.0588659,2.20155389 90.45,1.82297297 C89.8050302,1.42638168 89.1102519,1.12229965 88.385,0.919189189 C87.5696385,0.696302259 86.7287115,0.587481751 85.885,0.595675676 C84.712338,0.586626655 83.5491294,0.811603916 82.46,1.25810811 C81.4246882,1.67963384 80.4801248,2.30600629 79.68,3.10162162 C78.8855129,3.89560641 78.2546655,4.84562298 77.825,5.89513514 C77.3747203,7.00063459 77.1484526,8.18875834 77.16,9.38702703 L77.16,9.43837838 C77.1455564,10.6627209 77.3805874,11.8766335 77.85,13.0021622 C78.7190693,15.0887496 80.3673024,16.7297286 82.425,17.557027 C83.4597162,17.9761048 84.5627428,18.1887298 85.675,18.1835135 C86.597218,18.1953414 87.5163973,18.072584 88.405,17.8189189 C89.1668246,17.6017382 89.8942728,17.2731486 90.565,16.8432432 C91.1838779,16.4500352 91.7417633,15.9636222 92.22,15.4002703 C92.6122906,14.9374387 92.9652481,14.4409383 93.275,13.9162162 C93.3199355,13.8410889 93.3330679,13.7503802 93.3113592,13.6650759 C93.2896505,13.5797715 93.2349814,13.5072626 93.16,13.4643243 Z" id="Path"></path>
                    <path d="M141.825,0.955135135 L136.595,0.955135135 C136.485711,0.957390528 136.384602,1.0150806 136.325,1.10918919 L133.17,6.42405405 C133.113047,6.52139108 133.010571,6.58093263 132.9,6.58093263 C132.789429,6.58093263 132.686953,6.52139108 132.63,6.42405405 L129.47,1.10918919 C129.411685,1.01367555 129.30977,0.955526209 129.2,0.955135135 L123.97,0.955135135 C123.79603,0.955135135 123.655,1.09997707 123.655,1.27864865 L123.655,17.4954054 C123.655,17.674077 123.79603,17.8189189 123.97,17.8189189 L128.685,17.8189189 C128.859797,17.8189408 129.002269,17.6749045 129.005,17.4954054 L129.005,10.562973 C129.002873,10.4185014 129.094284,10.2900968 129.228973,10.2483597 C129.363661,10.2066226 129.508968,10.2616733 129.585,10.3832432 L132.585,15.0459459 C132.644527,15.1362658 132.743805,15.1903727 132.85,15.1903727 C132.956195,15.1903727 133.055473,15.1362658 133.115,15.0459459 L136.115,10.3832432 C136.191032,10.2616733 136.336339,10.2066226 136.471027,10.2483597 C136.605716,10.2900968 136.697127,10.4185014 136.695,10.562973 L136.695,17.4954054 C136.697731,17.6749045 136.840203,17.8189408 137.015,17.8189189 L141.845,17.8189189 C142.01897,17.8189189 142.16,17.674077 142.16,17.4954054 L142.16,1.27864865 C142.160176,1.18916714 142.124257,1.10360732 142.060784,1.04231008 C141.99731,0.98101285 141.911951,0.949453576 141.825,0.955135135 Z" id="Path"></path>
                    <path d="M163.765,0.955135135 L158.54,0.955135135 C158.428931,0.955684347 158.325582,1.0135801 158.265,1.10918919 L155.11,6.42405405 C155.053047,6.52139108 154.950571,6.58093263 154.84,6.58093263 C154.729429,6.58093263 154.626953,6.52139108 154.57,6.42405405 L151.415,1.10918919 C151.355398,1.0150806 151.254289,0.957390528 151.145,0.955135135 L145.915,0.955135135 C145.74103,0.955135135 145.6,1.09997707 145.6,1.27864865 L145.6,17.4954054 C145.6,17.674077 145.74103,17.8189189 145.915,17.8189189 L150.63,17.8189189 C150.80397,17.8189189 150.945,17.674077 150.945,17.4954054 L150.945,10.562973 C150.946892,10.4194004 151.039317,10.2937095 151.17326,10.2525583 C151.307202,10.2114072 151.451651,10.2643232 151.53,10.3832432 L154.53,15.0459459 C154.588361,15.1363071 154.68692,15.1906306 154.7925,15.1906306 C154.89808,15.1906306 154.996639,15.1363071 155.055,15.0459459 L158.055,10.3832432 C158.133349,10.2643232 158.277798,10.2114072 158.41174,10.2525583 C158.545683,10.2937095 158.638108,10.4194004 158.64,10.562973 L158.64,17.4954054 C158.64,17.674077 158.78103,17.8189189 158.955,17.8189189 L163.785,17.8189189 C163.959797,17.8189408 164.102269,17.6749045 164.105,17.4954054 L164.105,1.27864865 C164.103803,1.18870214 164.06676,1.1031908 164.002509,1.04205536 C163.938258,0.980919921 163.852416,0.949504555 163.765,0.955135135 Z" id="Path"></path>
                    <rect id="Rectangle" x="167.55" y="0.955135135" width="5.49" height="16.8637838" rx="0.315"></rect>
                    <path d="M189.91,0.955135135 L175.41,0.955135135 C175.235203,0.95511322 175.092731,1.09914956 175.09,1.27864865 L175.09,5.38675676 C175.092731,5.56625585 175.235203,5.71029219 175.41,5.71027027 L179.605,5.71027027 C179.779797,5.71024835 179.922269,5.85428469 179.925,6.03378378 L179.925,17.48 C179.925,17.6586716 180.06603,17.8035135 180.24,17.8035135 L185.095,17.8035135 C185.269797,17.8035354 185.412269,17.6594991 185.415,17.48 L185.415,6.04918919 C185.415,5.87051761 185.55603,5.72567568 185.73,5.72567568 L189.93,5.72567568 C190.10397,5.72567568 190.245,5.58083374 190.245,5.40216216 L190.245,1.29405405 C190.249465,1.20192965 190.215429,1.11222836 190.151447,1.04749813 C190.087465,0.982767912 189.999623,0.949164661 189.91,0.955135135 Z" id="Path"></path>
                </g>
            </g>
        </g>
    </g>
</svg>
